^Camera.ui
C:\Projekti\GIT\Palcke\MBsoftware\GeneratedFiles\ui_Camera.h
^DialogButtonBottom.ui
C:\Projekti\GIT\Palcke\MBsoftware\GeneratedFiles\ui_DialogButtonBottom.h
^DlgTypes.ui
C:\Projekti\GIT\Palcke\MBsoftware\GeneratedFiles\ui_DlgTypes.h
^imageProcessing.ui
C:\Projekti\GIT\Palcke\MBsoftware\GeneratedFiles\ui_imageProcessing.h
^LoginWindow.ui
C:\Projekti\GIT\Palcke\MBsoftware\GeneratedFiles\ui_LoginWindow.h
^MBserialCard.ui
C:\Projekti\GIT\Palcke\MBsoftware\GeneratedFiles\ui_MBserialCard.h
^MBsoftware.ui
C:\Projekti\GIT\Palcke\MBsoftware\GeneratedFiles\ui_MBsoftware.h
^SMCdrive.ui
C:\Projekti\GIT\Palcke\MBsoftware\GeneratedFiles\ui_SMCdrive.h
^statusBox.ui
C:\Projekti\GIT\Palcke\MBsoftware\GeneratedFiles\ui_statusBox.h
^types.ui
C:\Projekti\GIT\Palcke\MBsoftware\GeneratedFiles\ui_types.h
^MBsoftware.qrc
C:\Projekti\GIT\Palcke\MBsoftware\GeneratedFiles\qrc_MBsoftware.cpp
^MBsoftware.h
C:\Projekti\GIT\Palcke\MBsoftware\GeneratedFiles\Release\moc_MBsoftware.cpp
^imageProcessing.h
C:\Projekti\GIT\Palcke\MBsoftware\GeneratedFiles\Release\moc_imageProcessing.cpp
^Camera.h
C:\Projekti\GIT\Palcke\MBsoftware\GeneratedFiles\Release\moc_Camera.cpp
^ControlCardMB.h
C:\Projekti\GIT\Palcke\MBsoftware\GeneratedFiles\Release\moc_ControlCardMB.cpp
^DlgTypes.h
C:\Projekti\GIT\Palcke\MBsoftware\GeneratedFiles\Release\moc_DlgTypes.cpp
^Measurand.h
C:\Projekti\GIT\Palcke\MBsoftware\GeneratedFiles\Release\moc_Measurand.cpp
^Serial.h
C:\Projekti\GIT\Palcke\MBsoftware\GeneratedFiles\Release\moc_Serial.cpp
^SMCdrive.h
C:\Projekti\GIT\Palcke\MBsoftware\GeneratedFiles\Release\moc_SMCdrive.cpp
^PointGray.h
C:\Projekti\GIT\Palcke\MBsoftware\GeneratedFiles\Release\moc_PointGray.cpp
^statusBox.h
C:\Projekti\GIT\Palcke\MBsoftware\GeneratedFiles\Release\moc_statusBox.cpp
^LoginWindow.h
C:\Projekti\GIT\Palcke\MBsoftware\GeneratedFiles\Release\moc_LoginWindow.cpp
^Types.h
C:\Projekti\GIT\Palcke\MBsoftware\GeneratedFiles\Release\moc_Types.cpp
^Camera.ui
C:\Projekti\GIT\Palcke\MBsoftware\GeneratedFiles\ui_Camera.h
^DialogButtonBottom.ui
C:\Projekti\GIT\Palcke\MBsoftware\GeneratedFiles\ui_DialogButtonBottom.h
^DlgTypes.ui
C:\Projekti\GIT\Palcke\MBsoftware\GeneratedFiles\ui_DlgTypes.h
^imageProcessing.ui
C:\Projekti\GIT\Palcke\MBsoftware\GeneratedFiles\ui_imageProcessing.h
^LoginWindow.ui
C:\Projekti\GIT\Palcke\MBsoftware\GeneratedFiles\ui_LoginWindow.h
^MBserialCard.ui
C:\Projekti\GIT\Palcke\MBsoftware\GeneratedFiles\ui_MBserialCard.h
^MBsoftware.ui
C:\Projekti\GIT\Palcke\MBsoftware\GeneratedFiles\ui_MBsoftware.h
^SMCdrive.ui
C:\Projekti\GIT\Palcke\MBsoftware\GeneratedFiles\ui_SMCdrive.h
^statusBox.ui
C:\Projekti\GIT\Palcke\MBsoftware\GeneratedFiles\ui_statusBox.h
^types.ui
C:\Projekti\GIT\Palcke\MBsoftware\GeneratedFiles\ui_types.h
^MBsoftware.qrc
C:\Projekti\GIT\Palcke\MBsoftware\GeneratedFiles\qrc_MBsoftware.cpp
^MBsoftware.h
C:\Projekti\GIT\Palcke\MBsoftware\GeneratedFiles\Release\moc_MBsoftware.cpp
^Types.h
C:\Projekti\GIT\Palcke\MBsoftware\GeneratedFiles\Release\moc_Types.cpp
^imageProcessing.h
C:\Projekti\GIT\Palcke\MBsoftware\GeneratedFiles\Release\moc_imageProcessing.cpp
^Camera.h
C:\Projekti\GIT\Palcke\MBsoftware\GeneratedFiles\Release\moc_Camera.cpp
^ControlCardMB.h
C:\Projekti\GIT\Palcke\MBsoftware\GeneratedFiles\Release\moc_ControlCardMB.cpp
^DlgTypes.h
C:\Projekti\GIT\Palcke\MBsoftware\GeneratedFiles\Release\moc_DlgTypes.cpp
^Measurand.h
C:\Projekti\GIT\Palcke\MBsoftware\GeneratedFiles\Release\moc_Measurand.cpp
^Serial.h
C:\Projekti\GIT\Palcke\MBsoftware\GeneratedFiles\Release\moc_Serial.cpp
^SMCdrive.h
C:\Projekti\GIT\Palcke\MBsoftware\GeneratedFiles\Release\moc_SMCdrive.cpp
^PointGray.h
C:\Projekti\GIT\Palcke\MBsoftware\GeneratedFiles\Release\moc_PointGray.cpp
^statusBox.h
C:\Projekti\GIT\Palcke\MBsoftware\GeneratedFiles\Release\moc_statusBox.cpp
^LoginWindow.h
C:\Projekti\GIT\Palcke\MBsoftware\GeneratedFiles\Release\moc_LoginWindow.cpp
^Camera.ui
C:\Projekti\GIT\Palcke\MBsoftware\GeneratedFiles\ui_Camera.h
^DialogButtonBottom.ui
C:\Projekti\GIT\Palcke\MBsoftware\GeneratedFiles\ui_DialogButtonBottom.h
^DlgTypes.ui
C:\Projekti\GIT\Palcke\MBsoftware\GeneratedFiles\ui_DlgTypes.h
^imageProcessing.ui
C:\Projekti\GIT\Palcke\MBsoftware\GeneratedFiles\ui_imageProcessing.h
^LoginWindow.ui
C:\Projekti\GIT\Palcke\MBsoftware\GeneratedFiles\ui_LoginWindow.h
^MBserialCard.ui
C:\Projekti\GIT\Palcke\MBsoftware\GeneratedFiles\ui_MBserialCard.h
^MBsoftware.ui
C:\Projekti\GIT\Palcke\MBsoftware\GeneratedFiles\ui_MBsoftware.h
^SMCdrive.ui
C:\Projekti\GIT\Palcke\MBsoftware\GeneratedFiles\ui_SMCdrive.h
^statusBox.ui
C:\Projekti\GIT\Palcke\MBsoftware\GeneratedFiles\ui_statusBox.h
^types.ui
C:\Projekti\GIT\Palcke\MBsoftware\GeneratedFiles\ui_types.h
^MBsoftware.qrc
C:\Projekti\GIT\Palcke\MBsoftware\GeneratedFiles\qrc_MBsoftware.cpp
^MBsoftware.h
C:\Projekti\GIT\Palcke\MBsoftware\GeneratedFiles\Release\moc_MBsoftware.cpp
^Types.h
C:\Projekti\GIT\Palcke\MBsoftware\GeneratedFiles\Release\moc_Types.cpp
^imageProcessing.h
C:\Projekti\GIT\Palcke\MBsoftware\GeneratedFiles\Release\moc_imageProcessing.cpp
^Camera.h
C:\Projekti\GIT\Palcke\MBsoftware\GeneratedFiles\Release\moc_Camera.cpp
^ControlCardMB.h
C:\Projekti\GIT\Palcke\MBsoftware\GeneratedFiles\Release\moc_ControlCardMB.cpp
^DlgTypes.h
C:\Projekti\GIT\Palcke\MBsoftware\GeneratedFiles\Release\moc_DlgTypes.cpp
^Measurand.h
C:\Projekti\GIT\Palcke\MBsoftware\GeneratedFiles\Release\moc_Measurand.cpp
^Serial.h
C:\Projekti\GIT\Palcke\MBsoftware\GeneratedFiles\Release\moc_Serial.cpp
^SMCdrive.h
C:\Projekti\GIT\Palcke\MBsoftware\GeneratedFiles\Release\moc_SMCdrive.cpp
^PointGray.h
C:\Projekti\GIT\Palcke\MBsoftware\GeneratedFiles\Release\moc_PointGray.cpp
^statusBox.h
C:\Projekti\GIT\Palcke\MBsoftware\GeneratedFiles\Release\moc_statusBox.cpp
^LoginWindow.h
C:\Projekti\GIT\Palcke\MBsoftware\GeneratedFiles\Release\moc_LoginWindow.cpp
^Camera.ui
C:\Projekti\GIT\Palcke\MBsoftware\GeneratedFiles\ui_Camera.h
^DialogButtonBottom.ui
C:\Projekti\GIT\Palcke\MBsoftware\GeneratedFiles\ui_DialogButtonBottom.h
^DlgTypes.ui
C:\Projekti\GIT\Palcke\MBsoftware\GeneratedFiles\ui_DlgTypes.h
^imageProcessing.ui
C:\Projekti\GIT\Palcke\MBsoftware\GeneratedFiles\ui_imageProcessing.h
^LoginWindow.ui
C:\Projekti\GIT\Palcke\MBsoftware\GeneratedFiles\ui_LoginWindow.h
^MBserialCard.ui
C:\Projekti\GIT\Palcke\MBsoftware\GeneratedFiles\ui_MBserialCard.h
^MBsoftware.ui
C:\Projekti\GIT\Palcke\MBsoftware\GeneratedFiles\ui_MBsoftware.h
^SMCdrive.ui
C:\Projekti\GIT\Palcke\MBsoftware\GeneratedFiles\ui_SMCdrive.h
^statusBox.ui
C:\Projekti\GIT\Palcke\MBsoftware\GeneratedFiles\ui_statusBox.h
^types.ui
C:\Projekti\GIT\Palcke\MBsoftware\GeneratedFiles\ui_types.h
^MBsoftware.qrc
C:\Projekti\GIT\Palcke\MBsoftware\GeneratedFiles\qrc_MBsoftware.cpp
^MBsoftware.h
C:\Projekti\GIT\Palcke\MBsoftware\GeneratedFiles\Release\moc_MBsoftware.cpp
^Types.h
C:\Projekti\GIT\Palcke\MBsoftware\GeneratedFiles\Release\moc_Types.cpp
^imageProcessing.h
C:\Projekti\GIT\Palcke\MBsoftware\GeneratedFiles\Release\moc_imageProcessing.cpp
^Camera.h
C:\Projekti\GIT\Palcke\MBsoftware\GeneratedFiles\Release\moc_Camera.cpp
^ControlCardMB.h
C:\Projekti\GIT\Palcke\MBsoftware\GeneratedFiles\Release\moc_ControlCardMB.cpp
^DlgTypes.h
C:\Projekti\GIT\Palcke\MBsoftware\GeneratedFiles\Release\moc_DlgTypes.cpp
^Measurand.h
C:\Projekti\GIT\Palcke\MBsoftware\GeneratedFiles\Release\moc_Measurand.cpp
^Serial.h
C:\Projekti\GIT\Palcke\MBsoftware\GeneratedFiles\Release\moc_Serial.cpp
^SMCdrive.h
C:\Projekti\GIT\Palcke\MBsoftware\GeneratedFiles\Release\moc_SMCdrive.cpp
^PointGray.h
C:\Projekti\GIT\Palcke\MBsoftware\GeneratedFiles\Release\moc_PointGray.cpp
^statusBox.h
C:\Projekti\GIT\Palcke\MBsoftware\GeneratedFiles\Release\moc_statusBox.cpp
^LoginWindow.h
C:\Projekti\GIT\Palcke\MBsoftware\GeneratedFiles\Release\moc_LoginWindow.cpp
^Camera.ui
C:\Projekti\GIT\Palcke\MBsoftware\GeneratedFiles\ui_Camera.h
^DialogButtonBottom.ui
C:\Projekti\GIT\Palcke\MBsoftware\GeneratedFiles\ui_DialogButtonBottom.h
^DlgTypes.ui
C:\Projekti\GIT\Palcke\MBsoftware\GeneratedFiles\ui_DlgTypes.h
^imageProcessing.ui
C:\Projekti\GIT\Palcke\MBsoftware\GeneratedFiles\ui_imageProcessing.h
^LoginWindow.ui
C:\Projekti\GIT\Palcke\MBsoftware\GeneratedFiles\ui_LoginWindow.h
^MBserialCard.ui
C:\Projekti\GIT\Palcke\MBsoftware\GeneratedFiles\ui_MBserialCard.h
^MBsoftware.ui
C:\Projekti\GIT\Palcke\MBsoftware\GeneratedFiles\ui_MBsoftware.h
^SMCdrive.ui
C:\Projekti\GIT\Palcke\MBsoftware\GeneratedFiles\ui_SMCdrive.h
^statusBox.ui
C:\Projekti\GIT\Palcke\MBsoftware\GeneratedFiles\ui_statusBox.h
^types.ui
C:\Projekti\GIT\Palcke\MBsoftware\GeneratedFiles\ui_types.h
^MBsoftware.qrc
C:\Projekti\GIT\Palcke\MBsoftware\GeneratedFiles\qrc_MBsoftware.cpp
^MBsoftware.h
C:\Projekti\GIT\Palcke\MBsoftware\GeneratedFiles\Release\moc_MBsoftware.cpp
^Types.h
C:\Projekti\GIT\Palcke\MBsoftware\GeneratedFiles\Release\moc_Types.cpp
^imageProcessing.h
C:\Projekti\GIT\Palcke\MBsoftware\GeneratedFiles\Release\moc_imageProcessing.cpp
^Camera.h
C:\Projekti\GIT\Palcke\MBsoftware\GeneratedFiles\Release\moc_Camera.cpp
^ControlCardMB.h
C:\Projekti\GIT\Palcke\MBsoftware\GeneratedFiles\Release\moc_ControlCardMB.cpp
^DlgTypes.h
C:\Projekti\GIT\Palcke\MBsoftware\GeneratedFiles\Release\moc_DlgTypes.cpp
^Measurand.h
C:\Projekti\GIT\Palcke\MBsoftware\GeneratedFiles\Release\moc_Measurand.cpp
^Serial.h
C:\Projekti\GIT\Palcke\MBsoftware\GeneratedFiles\Release\moc_Serial.cpp
^SMCdrive.h
C:\Projekti\GIT\Palcke\MBsoftware\GeneratedFiles\Release\moc_SMCdrive.cpp
^PointGray.h
C:\Projekti\GIT\Palcke\MBsoftware\GeneratedFiles\Release\moc_PointGray.cpp
^statusBox.h
C:\Projekti\GIT\Palcke\MBsoftware\GeneratedFiles\Release\moc_statusBox.cpp
^LoginWindow.h
C:\Projekti\GIT\Palcke\MBsoftware\GeneratedFiles\Release\moc_LoginWindow.cpp
^Camera.ui
C:\Projekti\GIT\Palcke\MBsoftware\GeneratedFiles\ui_Camera.h
^DialogButtonBottom.ui
C:\Projekti\GIT\Palcke\MBsoftware\GeneratedFiles\ui_DialogButtonBottom.h
^DlgTypes.ui
C:\Projekti\GIT\Palcke\MBsoftware\GeneratedFiles\ui_DlgTypes.h
^imageProcessing.ui
C:\Projekti\GIT\Palcke\MBsoftware\GeneratedFiles\ui_imageProcessing.h
^LoginWindow.ui
C:\Projekti\GIT\Palcke\MBsoftware\GeneratedFiles\ui_LoginWindow.h
^MBserialCard.ui
C:\Projekti\GIT\Palcke\MBsoftware\GeneratedFiles\ui_MBserialCard.h
^MBsoftware.ui
C:\Projekti\GIT\Palcke\MBsoftware\GeneratedFiles\ui_MBsoftware.h
^SMCdrive.ui
C:\Projekti\GIT\Palcke\MBsoftware\GeneratedFiles\ui_SMCdrive.h
^statusBox.ui
C:\Projekti\GIT\Palcke\MBsoftware\GeneratedFiles\ui_statusBox.h
^types.ui
C:\Projekti\GIT\Palcke\MBsoftware\GeneratedFiles\ui_types.h
^MBsoftware.qrc
C:\Projekti\GIT\Palcke\MBsoftware\GeneratedFiles\qrc_MBsoftware.cpp
^MBsoftware.h
C:\Projekti\GIT\Palcke\MBsoftware\GeneratedFiles\Release\moc_MBsoftware.cpp
^Types.h
C:\Projekti\GIT\Palcke\MBsoftware\GeneratedFiles\Release\moc_Types.cpp
^imageProcessing.h
C:\Projekti\GIT\Palcke\MBsoftware\GeneratedFiles\Release\moc_imageProcessing.cpp
^Camera.h
C:\Projekti\GIT\Palcke\MBsoftware\GeneratedFiles\Release\moc_Camera.cpp
^ControlCardMB.h
C:\Projekti\GIT\Palcke\MBsoftware\GeneratedFiles\Release\moc_ControlCardMB.cpp
^DlgTypes.h
C:\Projekti\GIT\Palcke\MBsoftware\GeneratedFiles\Release\moc_DlgTypes.cpp
^Measurand.h
C:\Projekti\GIT\Palcke\MBsoftware\GeneratedFiles\Release\moc_Measurand.cpp
^Serial.h
C:\Projekti\GIT\Palcke\MBsoftware\GeneratedFiles\Release\moc_Serial.cpp
^SMCdrive.h
C:\Projekti\GIT\Palcke\MBsoftware\GeneratedFiles\Release\moc_SMCdrive.cpp
^PointGray.h
C:\Projekti\GIT\Palcke\MBsoftware\GeneratedFiles\Release\moc_PointGray.cpp
^statusBox.h
C:\Projekti\GIT\Palcke\MBsoftware\GeneratedFiles\Release\moc_statusBox.cpp
^LoginWindow.h
C:\Projekti\GIT\Palcke\MBsoftware\GeneratedFiles\Release\moc_LoginWindow.cpp
^Camera.ui
C:\Projekti\GIT\Palcke\MBsoftware\GeneratedFiles\ui_Camera.h
^DialogButtonBottom.ui
C:\Projekti\GIT\Palcke\MBsoftware\GeneratedFiles\ui_DialogButtonBottom.h
^DlgTypes.ui
C:\Projekti\GIT\Palcke\MBsoftware\GeneratedFiles\ui_DlgTypes.h
^imageProcessing.ui
C:\Projekti\GIT\Palcke\MBsoftware\GeneratedFiles\ui_imageProcessing.h
^LoginWindow.ui
C:\Projekti\GIT\Palcke\MBsoftware\GeneratedFiles\ui_LoginWindow.h
^MBserialCard.ui
C:\Projekti\GIT\Palcke\MBsoftware\GeneratedFiles\ui_MBserialCard.h
^MBsoftware.ui
C:\Projekti\GIT\Palcke\MBsoftware\GeneratedFiles\ui_MBsoftware.h
^SMCdrive.ui
C:\Projekti\GIT\Palcke\MBsoftware\GeneratedFiles\ui_SMCdrive.h
^statusBox.ui
C:\Projekti\GIT\Palcke\MBsoftware\GeneratedFiles\ui_statusBox.h
^types.ui
C:\Projekti\GIT\Palcke\MBsoftware\GeneratedFiles\ui_types.h
^MBsoftware.qrc
C:\Projekti\GIT\Palcke\MBsoftware\GeneratedFiles\qrc_MBsoftware.cpp
^MBsoftware.h
C:\Projekti\GIT\Palcke\MBsoftware\GeneratedFiles\Release\moc_MBsoftware.cpp
^Types.h
C:\Projekti\GIT\Palcke\MBsoftware\GeneratedFiles\Release\moc_Types.cpp
^imageProcessing.h
C:\Projekti\GIT\Palcke\MBsoftware\GeneratedFiles\Release\moc_imageProcessing.cpp
^Camera.h
C:\Projekti\GIT\Palcke\MBsoftware\GeneratedFiles\Release\moc_Camera.cpp
^ControlCardMB.h
C:\Projekti\GIT\Palcke\MBsoftware\GeneratedFiles\Release\moc_ControlCardMB.cpp
^DlgTypes.h
C:\Projekti\GIT\Palcke\MBsoftware\GeneratedFiles\Release\moc_DlgTypes.cpp
^Measurand.h
C:\Projekti\GIT\Palcke\MBsoftware\GeneratedFiles\Release\moc_Measurand.cpp
^Serial.h
C:\Projekti\GIT\Palcke\MBsoftware\GeneratedFiles\Release\moc_Serial.cpp
^SMCdrive.h
C:\Projekti\GIT\Palcke\MBsoftware\GeneratedFiles\Release\moc_SMCdrive.cpp
^PointGray.h
C:\Projekti\GIT\Palcke\MBsoftware\GeneratedFiles\Release\moc_PointGray.cpp
^statusBox.h
C:\Projekti\GIT\Palcke\MBsoftware\GeneratedFiles\Release\moc_statusBox.cpp
^LoginWindow.h
C:\Projekti\GIT\Palcke\MBsoftware\GeneratedFiles\Release\moc_LoginWindow.cpp
^Camera.ui
C:\Projekti\GIT\Palcke\MBsoftware\GeneratedFiles\ui_Camera.h
^DialogButtonBottom.ui
C:\Projekti\GIT\Palcke\MBsoftware\GeneratedFiles\ui_DialogButtonBottom.h
^DlgTypes.ui
C:\Projekti\GIT\Palcke\MBsoftware\GeneratedFiles\ui_DlgTypes.h
^imageProcessing.ui
C:\Projekti\GIT\Palcke\MBsoftware\GeneratedFiles\ui_imageProcessing.h
^LoginWindow.ui
C:\Projekti\GIT\Palcke\MBsoftware\GeneratedFiles\ui_LoginWindow.h
^MBserialCard.ui
C:\Projekti\GIT\Palcke\MBsoftware\GeneratedFiles\ui_MBserialCard.h
^MBsoftware.ui
C:\Projekti\GIT\Palcke\MBsoftware\GeneratedFiles\ui_MBsoftware.h
^SMCdrive.ui
C:\Projekti\GIT\Palcke\MBsoftware\GeneratedFiles\ui_SMCdrive.h
^statusBox.ui
C:\Projekti\GIT\Palcke\MBsoftware\GeneratedFiles\ui_statusBox.h
^types.ui
C:\Projekti\GIT\Palcke\MBsoftware\GeneratedFiles\ui_types.h
^MBsoftware.qrc
C:\Projekti\GIT\Palcke\MBsoftware\GeneratedFiles\qrc_MBsoftware.cpp
^MBsoftware.h
C:\Projekti\GIT\Palcke\MBsoftware\GeneratedFiles\Release\moc_MBsoftware.cpp
^Types.h
C:\Projekti\GIT\Palcke\MBsoftware\GeneratedFiles\Release\moc_Types.cpp
^imageProcessing.h
C:\Projekti\GIT\Palcke\MBsoftware\GeneratedFiles\Release\moc_imageProcessing.cpp
^Camera.h
C:\Projekti\GIT\Palcke\MBsoftware\GeneratedFiles\Release\moc_Camera.cpp
^ControlCardMB.h
C:\Projekti\GIT\Palcke\MBsoftware\GeneratedFiles\Release\moc_ControlCardMB.cpp
^DlgTypes.h
C:\Projekti\GIT\Palcke\MBsoftware\GeneratedFiles\Release\moc_DlgTypes.cpp
^Measurand.h
C:\Projekti\GIT\Palcke\MBsoftware\GeneratedFiles\Release\moc_Measurand.cpp
^Serial.h
C:\Projekti\GIT\Palcke\MBsoftware\GeneratedFiles\Release\moc_Serial.cpp
^SMCdrive.h
C:\Projekti\GIT\Palcke\MBsoftware\GeneratedFiles\Release\moc_SMCdrive.cpp
^PointGray.h
C:\Projekti\GIT\Palcke\MBsoftware\GeneratedFiles\Release\moc_PointGray.cpp
^statusBox.h
C:\Projekti\GIT\Palcke\MBsoftware\GeneratedFiles\Release\moc_statusBox.cpp
^LoginWindow.h
C:\Projekti\GIT\Palcke\MBsoftware\GeneratedFiles\Release\moc_LoginWindow.cpp
^Camera.ui
C:\Projekti\GIT\Palcke\MBsoftware\GeneratedFiles\ui_Camera.h
^DialogButtonBottom.ui
C:\Projekti\GIT\Palcke\MBsoftware\GeneratedFiles\ui_DialogButtonBottom.h
^DlgTypes.ui
C:\Projekti\GIT\Palcke\MBsoftware\GeneratedFiles\ui_DlgTypes.h
^imageProcessing.ui
C:\Projekti\GIT\Palcke\MBsoftware\GeneratedFiles\ui_imageProcessing.h
^LoginWindow.ui
C:\Projekti\GIT\Palcke\MBsoftware\GeneratedFiles\ui_LoginWindow.h
^MBserialCard.ui
C:\Projekti\GIT\Palcke\MBsoftware\GeneratedFiles\ui_MBserialCard.h
^MBsoftware.ui
C:\Projekti\GIT\Palcke\MBsoftware\GeneratedFiles\ui_MBsoftware.h
^SMCdrive.ui
C:\Projekti\GIT\Palcke\MBsoftware\GeneratedFiles\ui_SMCdrive.h
^statusBox.ui
C:\Projekti\GIT\Palcke\MBsoftware\GeneratedFiles\ui_statusBox.h
^types.ui
C:\Projekti\GIT\Palcke\MBsoftware\GeneratedFiles\ui_types.h
^MBsoftware.qrc
C:\Projekti\GIT\Palcke\MBsoftware\GeneratedFiles\qrc_MBsoftware.cpp
^MBsoftware.h
C:\Projekti\GIT\Palcke\MBsoftware\GeneratedFiles\Release\moc_MBsoftware.cpp
^Types.h
C:\Projekti\GIT\Palcke\MBsoftware\GeneratedFiles\Release\moc_Types.cpp
^imageProcessing.h
C:\Projekti\GIT\Palcke\MBsoftware\GeneratedFiles\Release\moc_imageProcessing.cpp
^Camera.h
C:\Projekti\GIT\Palcke\MBsoftware\GeneratedFiles\Release\moc_Camera.cpp
^ControlCardMB.h
C:\Projekti\GIT\Palcke\MBsoftware\GeneratedFiles\Release\moc_ControlCardMB.cpp
^DlgTypes.h
C:\Projekti\GIT\Palcke\MBsoftware\GeneratedFiles\Release\moc_DlgTypes.cpp
^Measurand.h
C:\Projekti\GIT\Palcke\MBsoftware\GeneratedFiles\Release\moc_Measurand.cpp
^Serial.h
C:\Projekti\GIT\Palcke\MBsoftware\GeneratedFiles\Release\moc_Serial.cpp
^SMCdrive.h
C:\Projekti\GIT\Palcke\MBsoftware\GeneratedFiles\Release\moc_SMCdrive.cpp
^PointGray.h
C:\Projekti\GIT\Palcke\MBsoftware\GeneratedFiles\Release\moc_PointGray.cpp
^statusBox.h
C:\Projekti\GIT\Palcke\MBsoftware\GeneratedFiles\Release\moc_statusBox.cpp
^LoginWindow.h
C:\Projekti\GIT\Palcke\MBsoftware\GeneratedFiles\Release\moc_LoginWindow.cpp
^Camera.ui
C:\Projekti\GIT\Palcke\MBsoftware\GeneratedFiles\ui_Camera.h
^DialogButtonBottom.ui
C:\Projekti\GIT\Palcke\MBsoftware\GeneratedFiles\ui_DialogButtonBottom.h
^DlgTypes.ui
C:\Projekti\GIT\Palcke\MBsoftware\GeneratedFiles\ui_DlgTypes.h
^imageProcessing.ui
C:\Projekti\GIT\Palcke\MBsoftware\GeneratedFiles\ui_imageProcessing.h
^LoginWindow.ui
C:\Projekti\GIT\Palcke\MBsoftware\GeneratedFiles\ui_LoginWindow.h
^MBserialCard.ui
C:\Projekti\GIT\Palcke\MBsoftware\GeneratedFiles\ui_MBserialCard.h
^MBsoftware.ui
C:\Projekti\GIT\Palcke\MBsoftware\GeneratedFiles\ui_MBsoftware.h
^SMCdrive.ui
C:\Projekti\GIT\Palcke\MBsoftware\GeneratedFiles\ui_SMCdrive.h
^statusBox.ui
C:\Projekti\GIT\Palcke\MBsoftware\GeneratedFiles\ui_statusBox.h
^types.ui
C:\Projekti\GIT\Palcke\MBsoftware\GeneratedFiles\ui_types.h
^MBsoftware.qrc
C:\Projekti\GIT\Palcke\MBsoftware\GeneratedFiles\qrc_MBsoftware.cpp
^MBsoftware.h
C:\Projekti\GIT\Palcke\MBsoftware\GeneratedFiles\Release\moc_MBsoftware.cpp
^Types.h
C:\Projekti\GIT\Palcke\MBsoftware\GeneratedFiles\Release\moc_Types.cpp
^imageProcessing.h
C:\Projekti\GIT\Palcke\MBsoftware\GeneratedFiles\Release\moc_imageProcessing.cpp
^Camera.h
C:\Projekti\GIT\Palcke\MBsoftware\GeneratedFiles\Release\moc_Camera.cpp
^ControlCardMB.h
C:\Projekti\GIT\Palcke\MBsoftware\GeneratedFiles\Release\moc_ControlCardMB.cpp
^DlgTypes.h
C:\Projekti\GIT\Palcke\MBsoftware\GeneratedFiles\Release\moc_DlgTypes.cpp
^Measurand.h
C:\Projekti\GIT\Palcke\MBsoftware\GeneratedFiles\Release\moc_Measurand.cpp
^Serial.h
C:\Projekti\GIT\Palcke\MBsoftware\GeneratedFiles\Release\moc_Serial.cpp
^SMCdrive.h
C:\Projekti\GIT\Palcke\MBsoftware\GeneratedFiles\Release\moc_SMCdrive.cpp
^PointGray.h
C:\Projekti\GIT\Palcke\MBsoftware\GeneratedFiles\Release\moc_PointGray.cpp
^statusBox.h
C:\Projekti\GIT\Palcke\MBsoftware\GeneratedFiles\Release\moc_statusBox.cpp
^LoginWindow.h
C:\Projekti\GIT\Palcke\MBsoftware\GeneratedFiles\Release\moc_LoginWindow.cpp
^Camera.ui
C:\Projekti\GIT\Palcke\MBsoftware\GeneratedFiles\ui_Camera.h
^DialogButtonBottom.ui
C:\Projekti\GIT\Palcke\MBsoftware\GeneratedFiles\ui_DialogButtonBottom.h
^DlgTypes.ui
C:\Projekti\GIT\Palcke\MBsoftware\GeneratedFiles\ui_DlgTypes.h
^imageProcessing.ui
C:\Projekti\GIT\Palcke\MBsoftware\GeneratedFiles\ui_imageProcessing.h
^LoginWindow.ui
C:\Projekti\GIT\Palcke\MBsoftware\GeneratedFiles\ui_LoginWindow.h
^MBserialCard.ui
C:\Projekti\GIT\Palcke\MBsoftware\GeneratedFiles\ui_MBserialCard.h
^MBsoftware.ui
C:\Projekti\GIT\Palcke\MBsoftware\GeneratedFiles\ui_MBsoftware.h
^SMCdrive.ui
C:\Projekti\GIT\Palcke\MBsoftware\GeneratedFiles\ui_SMCdrive.h
^statusBox.ui
C:\Projekti\GIT\Palcke\MBsoftware\GeneratedFiles\ui_statusBox.h
^types.ui
C:\Projekti\GIT\Palcke\MBsoftware\GeneratedFiles\ui_types.h
^MBsoftware.qrc
C:\Projekti\GIT\Palcke\MBsoftware\GeneratedFiles\qrc_MBsoftware.cpp
^MBsoftware.h
C:\Projekti\GIT\Palcke\MBsoftware\GeneratedFiles\Release\moc_MBsoftware.cpp
^Types.h
C:\Projekti\GIT\Palcke\MBsoftware\GeneratedFiles\Release\moc_Types.cpp
^imageProcessing.h
C:\Projekti\GIT\Palcke\MBsoftware\GeneratedFiles\Release\moc_imageProcessing.cpp
^Camera.h
C:\Projekti\GIT\Palcke\MBsoftware\GeneratedFiles\Release\moc_Camera.cpp
^ControlCardMB.h
C:\Projekti\GIT\Palcke\MBsoftware\GeneratedFiles\Release\moc_ControlCardMB.cpp
^DlgTypes.h
C:\Projekti\GIT\Palcke\MBsoftware\GeneratedFiles\Release\moc_DlgTypes.cpp
^Measurand.h
C:\Projekti\GIT\Palcke\MBsoftware\GeneratedFiles\Release\moc_Measurand.cpp
^Serial.h
C:\Projekti\GIT\Palcke\MBsoftware\GeneratedFiles\Release\moc_Serial.cpp
^SMCdrive.h
C:\Projekti\GIT\Palcke\MBsoftware\GeneratedFiles\Release\moc_SMCdrive.cpp
^PointGray.h
C:\Projekti\GIT\Palcke\MBsoftware\GeneratedFiles\Release\moc_PointGray.cpp
^statusBox.h
C:\Projekti\GIT\Palcke\MBsoftware\GeneratedFiles\Release\moc_statusBox.cpp
^LoginWindow.h
C:\Projekti\GIT\Palcke\MBsoftware\GeneratedFiles\Release\moc_LoginWindow.cpp
^Camera.ui
C:\Projekti\GIT\Palcke\MBsoftware\GeneratedFiles\ui_Camera.h
^DialogButtonBottom.ui
C:\Projekti\GIT\Palcke\MBsoftware\GeneratedFiles\ui_DialogButtonBottom.h
^DlgTypes.ui
C:\Projekti\GIT\Palcke\MBsoftware\GeneratedFiles\ui_DlgTypes.h
^imageProcessing.ui
C:\Projekti\GIT\Palcke\MBsoftware\GeneratedFiles\ui_imageProcessing.h
^LoginWindow.ui
C:\Projekti\GIT\Palcke\MBsoftware\GeneratedFiles\ui_LoginWindow.h
^MBserialCard.ui
C:\Projekti\GIT\Palcke\MBsoftware\GeneratedFiles\ui_MBserialCard.h
^MBsoftware.ui
C:\Projekti\GIT\Palcke\MBsoftware\GeneratedFiles\ui_MBsoftware.h
^SMCdrive.ui
C:\Projekti\GIT\Palcke\MBsoftware\GeneratedFiles\ui_SMCdrive.h
^statusBox.ui
C:\Projekti\GIT\Palcke\MBsoftware\GeneratedFiles\ui_statusBox.h
^types.ui
C:\Projekti\GIT\Palcke\MBsoftware\GeneratedFiles\ui_types.h
^MBsoftware.qrc
C:\Projekti\GIT\Palcke\MBsoftware\GeneratedFiles\qrc_MBsoftware.cpp
^MBsoftware.h
C:\Projekti\GIT\Palcke\MBsoftware\GeneratedFiles\Release\moc_MBsoftware.cpp
^Types.h
C:\Projekti\GIT\Palcke\MBsoftware\GeneratedFiles\Release\moc_Types.cpp
^imageProcessing.h
C:\Projekti\GIT\Palcke\MBsoftware\GeneratedFiles\Release\moc_imageProcessing.cpp
^Camera.h
C:\Projekti\GIT\Palcke\MBsoftware\GeneratedFiles\Release\moc_Camera.cpp
^ControlCardMB.h
C:\Projekti\GIT\Palcke\MBsoftware\GeneratedFiles\Release\moc_ControlCardMB.cpp
^DlgTypes.h
C:\Projekti\GIT\Palcke\MBsoftware\GeneratedFiles\Release\moc_DlgTypes.cpp
^Measurand.h
C:\Projekti\GIT\Palcke\MBsoftware\GeneratedFiles\Release\moc_Measurand.cpp
^Serial.h
C:\Projekti\GIT\Palcke\MBsoftware\GeneratedFiles\Release\moc_Serial.cpp
^SMCdrive.h
C:\Projekti\GIT\Palcke\MBsoftware\GeneratedFiles\Release\moc_SMCdrive.cpp
^PointGray.h
C:\Projekti\GIT\Palcke\MBsoftware\GeneratedFiles\Release\moc_PointGray.cpp
^statusBox.h
C:\Projekti\GIT\Palcke\MBsoftware\GeneratedFiles\Release\moc_statusBox.cpp
^LoginWindow.h
C:\Projekti\GIT\Palcke\MBsoftware\GeneratedFiles\Release\moc_LoginWindow.cpp
^Camera.ui
C:\Projekti\GIT\Palcke\MBsoftware\GeneratedFiles\ui_Camera.h
^DialogButtonBottom.ui
C:\Projekti\GIT\Palcke\MBsoftware\GeneratedFiles\ui_DialogButtonBottom.h
^DlgTypes.ui
C:\Projekti\GIT\Palcke\MBsoftware\GeneratedFiles\ui_DlgTypes.h
^imageProcessing.ui
C:\Projekti\GIT\Palcke\MBsoftware\GeneratedFiles\ui_imageProcessing.h
^LoginWindow.ui
C:\Projekti\GIT\Palcke\MBsoftware\GeneratedFiles\ui_LoginWindow.h
^MBserialCard.ui
C:\Projekti\GIT\Palcke\MBsoftware\GeneratedFiles\ui_MBserialCard.h
^MBsoftware.ui
C:\Projekti\GIT\Palcke\MBsoftware\GeneratedFiles\ui_MBsoftware.h
^SMCdrive.ui
C:\Projekti\GIT\Palcke\MBsoftware\GeneratedFiles\ui_SMCdrive.h
^statusBox.ui
C:\Projekti\GIT\Palcke\MBsoftware\GeneratedFiles\ui_statusBox.h
^types.ui
C:\Projekti\GIT\Palcke\MBsoftware\GeneratedFiles\ui_types.h
^MBsoftware.qrc
C:\Projekti\GIT\Palcke\MBsoftware\GeneratedFiles\qrc_MBsoftware.cpp
^MBsoftware.h
C:\Projekti\GIT\Palcke\MBsoftware\GeneratedFiles\Release\moc_MBsoftware.cpp
^Types.h
C:\Projekti\GIT\Palcke\MBsoftware\GeneratedFiles\Release\moc_Types.cpp
^imageProcessing.h
C:\Projekti\GIT\Palcke\MBsoftware\GeneratedFiles\Release\moc_imageProcessing.cpp
^Camera.h
C:\Projekti\GIT\Palcke\MBsoftware\GeneratedFiles\Release\moc_Camera.cpp
^ControlCardMB.h
C:\Projekti\GIT\Palcke\MBsoftware\GeneratedFiles\Release\moc_ControlCardMB.cpp
^DlgTypes.h
C:\Projekti\GIT\Palcke\MBsoftware\GeneratedFiles\Release\moc_DlgTypes.cpp
^Measurand.h
C:\Projekti\GIT\Palcke\MBsoftware\GeneratedFiles\Release\moc_Measurand.cpp
^Serial.h
C:\Projekti\GIT\Palcke\MBsoftware\GeneratedFiles\Release\moc_Serial.cpp
^SMCdrive.h
C:\Projekti\GIT\Palcke\MBsoftware\GeneratedFiles\Release\moc_SMCdrive.cpp
^PointGray.h
C:\Projekti\GIT\Palcke\MBsoftware\GeneratedFiles\Release\moc_PointGray.cpp
^statusBox.h
C:\Projekti\GIT\Palcke\MBsoftware\GeneratedFiles\Release\moc_statusBox.cpp
^LoginWindow.h
C:\Projekti\GIT\Palcke\MBsoftware\GeneratedFiles\Release\moc_LoginWindow.cpp
^Camera.ui
C:\Projekti\GIT\Palcke\MBsoftware\GeneratedFiles\ui_Camera.h
^DialogButtonBottom.ui
C:\Projekti\GIT\Palcke\MBsoftware\GeneratedFiles\ui_DialogButtonBottom.h
^DlgTypes.ui
C:\Projekti\GIT\Palcke\MBsoftware\GeneratedFiles\ui_DlgTypes.h
^imageProcessing.ui
C:\Projekti\GIT\Palcke\MBsoftware\GeneratedFiles\ui_imageProcessing.h
^LoginWindow.ui
C:\Projekti\GIT\Palcke\MBsoftware\GeneratedFiles\ui_LoginWindow.h
^MBserialCard.ui
C:\Projekti\GIT\Palcke\MBsoftware\GeneratedFiles\ui_MBserialCard.h
^MBsoftware.ui
C:\Projekti\GIT\Palcke\MBsoftware\GeneratedFiles\ui_MBsoftware.h
^SMCdrive.ui
C:\Projekti\GIT\Palcke\MBsoftware\GeneratedFiles\ui_SMCdrive.h
^statusBox.ui
C:\Projekti\GIT\Palcke\MBsoftware\GeneratedFiles\ui_statusBox.h
^types.ui
C:\Projekti\GIT\Palcke\MBsoftware\GeneratedFiles\ui_types.h
^MBsoftware.qrc
C:\Projekti\GIT\Palcke\MBsoftware\GeneratedFiles\qrc_MBsoftware.cpp
^MBsoftware.h
C:\Projekti\GIT\Palcke\MBsoftware\GeneratedFiles\Release\moc_MBsoftware.cpp
^Types.h
C:\Projekti\GIT\Palcke\MBsoftware\GeneratedFiles\Release\moc_Types.cpp
^imageProcessing.h
C:\Projekti\GIT\Palcke\MBsoftware\GeneratedFiles\Release\moc_imageProcessing.cpp
^Camera.h
C:\Projekti\GIT\Palcke\MBsoftware\GeneratedFiles\Release\moc_Camera.cpp
^ControlCardMB.h
C:\Projekti\GIT\Palcke\MBsoftware\GeneratedFiles\Release\moc_ControlCardMB.cpp
^DlgTypes.h
C:\Projekti\GIT\Palcke\MBsoftware\GeneratedFiles\Release\moc_DlgTypes.cpp
^Measurand.h
C:\Projekti\GIT\Palcke\MBsoftware\GeneratedFiles\Release\moc_Measurand.cpp
^Serial.h
C:\Projekti\GIT\Palcke\MBsoftware\GeneratedFiles\Release\moc_Serial.cpp
^SMCdrive.h
C:\Projekti\GIT\Palcke\MBsoftware\GeneratedFiles\Release\moc_SMCdrive.cpp
^PointGray.h
C:\Projekti\GIT\Palcke\MBsoftware\GeneratedFiles\Release\moc_PointGray.cpp
^statusBox.h
C:\Projekti\GIT\Palcke\MBsoftware\GeneratedFiles\Release\moc_statusBox.cpp
^LoginWindow.h
C:\Projekti\GIT\Palcke\MBsoftware\GeneratedFiles\Release\moc_LoginWindow.cpp
^Camera.ui
C:\Projekti\GIT\Palcke\MBsoftware\GeneratedFiles\ui_Camera.h
^DialogButtonBottom.ui
C:\Projekti\GIT\Palcke\MBsoftware\GeneratedFiles\ui_DialogButtonBottom.h
^DlgTypes.ui
C:\Projekti\GIT\Palcke\MBsoftware\GeneratedFiles\ui_DlgTypes.h
^imageProcessing.ui
C:\Projekti\GIT\Palcke\MBsoftware\GeneratedFiles\ui_imageProcessing.h
^LoginWindow.ui
C:\Projekti\GIT\Palcke\MBsoftware\GeneratedFiles\ui_LoginWindow.h
^MBserialCard.ui
C:\Projekti\GIT\Palcke\MBsoftware\GeneratedFiles\ui_MBserialCard.h
^MBsoftware.ui
C:\Projekti\GIT\Palcke\MBsoftware\GeneratedFiles\ui_MBsoftware.h
^SMCdrive.ui
C:\Projekti\GIT\Palcke\MBsoftware\GeneratedFiles\ui_SMCdrive.h
^statusBox.ui
C:\Projekti\GIT\Palcke\MBsoftware\GeneratedFiles\ui_statusBox.h
^types.ui
C:\Projekti\GIT\Palcke\MBsoftware\GeneratedFiles\ui_types.h
^MBsoftware.qrc
C:\Projekti\GIT\Palcke\MBsoftware\GeneratedFiles\qrc_MBsoftware.cpp
^MBsoftware.h
C:\Projekti\GIT\Palcke\MBsoftware\GeneratedFiles\Release\moc_MBsoftware.cpp
^Types.h
C:\Projekti\GIT\Palcke\MBsoftware\GeneratedFiles\Release\moc_Types.cpp
^imageProcessing.h
C:\Projekti\GIT\Palcke\MBsoftware\GeneratedFiles\Release\moc_imageProcessing.cpp
^Camera.h
C:\Projekti\GIT\Palcke\MBsoftware\GeneratedFiles\Release\moc_Camera.cpp
^ControlCardMB.h
C:\Projekti\GIT\Palcke\MBsoftware\GeneratedFiles\Release\moc_ControlCardMB.cpp
^DlgTypes.h
C:\Projekti\GIT\Palcke\MBsoftware\GeneratedFiles\Release\moc_DlgTypes.cpp
^Measurand.h
C:\Projekti\GIT\Palcke\MBsoftware\GeneratedFiles\Release\moc_Measurand.cpp
^Serial.h
C:\Projekti\GIT\Palcke\MBsoftware\GeneratedFiles\Release\moc_Serial.cpp
^SMCdrive.h
C:\Projekti\GIT\Palcke\MBsoftware\GeneratedFiles\Release\moc_SMCdrive.cpp
^PointGray.h
C:\Projekti\GIT\Palcke\MBsoftware\GeneratedFiles\Release\moc_PointGray.cpp
^statusBox.h
C:\Projekti\GIT\Palcke\MBsoftware\GeneratedFiles\Release\moc_statusBox.cpp
^LoginWindow.h
C:\Projekti\GIT\Palcke\MBsoftware\GeneratedFiles\Release\moc_LoginWindow.cpp
^Camera.ui
C:\Projekti\GIT\Palcke\MBsoftware\GeneratedFiles\ui_Camera.h
^DialogButtonBottom.ui
C:\Projekti\GIT\Palcke\MBsoftware\GeneratedFiles\ui_DialogButtonBottom.h
^DlgTypes.ui
C:\Projekti\GIT\Palcke\MBsoftware\GeneratedFiles\ui_DlgTypes.h
^imageProcessing.ui
C:\Projekti\GIT\Palcke\MBsoftware\GeneratedFiles\ui_imageProcessing.h
^LoginWindow.ui
C:\Projekti\GIT\Palcke\MBsoftware\GeneratedFiles\ui_LoginWindow.h
^MBserialCard.ui
C:\Projekti\GIT\Palcke\MBsoftware\GeneratedFiles\ui_MBserialCard.h
^MBsoftware.ui
C:\Projekti\GIT\Palcke\MBsoftware\GeneratedFiles\ui_MBsoftware.h
^SMCdrive.ui
C:\Projekti\GIT\Palcke\MBsoftware\GeneratedFiles\ui_SMCdrive.h
^statusBox.ui
C:\Projekti\GIT\Palcke\MBsoftware\GeneratedFiles\ui_statusBox.h
^types.ui
C:\Projekti\GIT\Palcke\MBsoftware\GeneratedFiles\ui_types.h
^MBsoftware.qrc
C:\Projekti\GIT\Palcke\MBsoftware\GeneratedFiles\qrc_MBsoftware.cpp
^MBsoftware.h
C:\Projekti\GIT\Palcke\MBsoftware\GeneratedFiles\Release\moc_MBsoftware.cpp
^Types.h
C:\Projekti\GIT\Palcke\MBsoftware\GeneratedFiles\Release\moc_Types.cpp
^imageProcessing.h
C:\Projekti\GIT\Palcke\MBsoftware\GeneratedFiles\Release\moc_imageProcessing.cpp
^Camera.h
C:\Projekti\GIT\Palcke\MBsoftware\GeneratedFiles\Release\moc_Camera.cpp
^ControlCardMB.h
C:\Projekti\GIT\Palcke\MBsoftware\GeneratedFiles\Release\moc_ControlCardMB.cpp
^DlgTypes.h
C:\Projekti\GIT\Palcke\MBsoftware\GeneratedFiles\Release\moc_DlgTypes.cpp
^Measurand.h
C:\Projekti\GIT\Palcke\MBsoftware\GeneratedFiles\Release\moc_Measurand.cpp
^Serial.h
C:\Projekti\GIT\Palcke\MBsoftware\GeneratedFiles\Release\moc_Serial.cpp
^SMCdrive.h
C:\Projekti\GIT\Palcke\MBsoftware\GeneratedFiles\Release\moc_SMCdrive.cpp
^PointGray.h
C:\Projekti\GIT\Palcke\MBsoftware\GeneratedFiles\Release\moc_PointGray.cpp
^statusBox.h
C:\Projekti\GIT\Palcke\MBsoftware\GeneratedFiles\Release\moc_statusBox.cpp
^LoginWindow.h
C:\Projekti\GIT\Palcke\MBsoftware\GeneratedFiles\Release\moc_LoginWindow.cpp
^Camera.ui
C:\Projekti\GIT\Palcke\MBsoftware\GeneratedFiles\ui_Camera.h
^DialogButtonBottom.ui
C:\Projekti\GIT\Palcke\MBsoftware\GeneratedFiles\ui_DialogButtonBottom.h
^DlgTypes.ui
C:\Projekti\GIT\Palcke\MBsoftware\GeneratedFiles\ui_DlgTypes.h
^imageProcessing.ui
C:\Projekti\GIT\Palcke\MBsoftware\GeneratedFiles\ui_imageProcessing.h
^LoginWindow.ui
C:\Projekti\GIT\Palcke\MBsoftware\GeneratedFiles\ui_LoginWindow.h
^MBserialCard.ui
C:\Projekti\GIT\Palcke\MBsoftware\GeneratedFiles\ui_MBserialCard.h
^MBsoftware.ui
C:\Projekti\GIT\Palcke\MBsoftware\GeneratedFiles\ui_MBsoftware.h
^SMCdrive.ui
C:\Projekti\GIT\Palcke\MBsoftware\GeneratedFiles\ui_SMCdrive.h
^statusBox.ui
C:\Projekti\GIT\Palcke\MBsoftware\GeneratedFiles\ui_statusBox.h
^types.ui
C:\Projekti\GIT\Palcke\MBsoftware\GeneratedFiles\ui_types.h
^MBsoftware.qrc
C:\Projekti\GIT\Palcke\MBsoftware\GeneratedFiles\qrc_MBsoftware.cpp
^MBsoftware.h
C:\Projekti\GIT\Palcke\MBsoftware\GeneratedFiles\Release\moc_MBsoftware.cpp
^Types.h
C:\Projekti\GIT\Palcke\MBsoftware\GeneratedFiles\Release\moc_Types.cpp
^imageProcessing.h
C:\Projekti\GIT\Palcke\MBsoftware\GeneratedFiles\Release\moc_imageProcessing.cpp
^Camera.h
C:\Projekti\GIT\Palcke\MBsoftware\GeneratedFiles\Release\moc_Camera.cpp
^ControlCardMB.h
C:\Projekti\GIT\Palcke\MBsoftware\GeneratedFiles\Release\moc_ControlCardMB.cpp
^DlgTypes.h
C:\Projekti\GIT\Palcke\MBsoftware\GeneratedFiles\Release\moc_DlgTypes.cpp
^Measurand.h
C:\Projekti\GIT\Palcke\MBsoftware\GeneratedFiles\Release\moc_Measurand.cpp
^Serial.h
C:\Projekti\GIT\Palcke\MBsoftware\GeneratedFiles\Release\moc_Serial.cpp
^SMCdrive.h
C:\Projekti\GIT\Palcke\MBsoftware\GeneratedFiles\Release\moc_SMCdrive.cpp
^PointGray.h
C:\Projekti\GIT\Palcke\MBsoftware\GeneratedFiles\Release\moc_PointGray.cpp
^statusBox.h
C:\Projekti\GIT\Palcke\MBsoftware\GeneratedFiles\Release\moc_statusBox.cpp
^LoginWindow.h
C:\Projekti\GIT\Palcke\MBsoftware\GeneratedFiles\Release\moc_LoginWindow.cpp
^Camera.ui
C:\Projekti\GIT\Palcke\MBsoftware\GeneratedFiles\ui_Camera.h
^DialogButtonBottom.ui
C:\Projekti\GIT\Palcke\MBsoftware\GeneratedFiles\ui_DialogButtonBottom.h
^DlgTypes.ui
C:\Projekti\GIT\Palcke\MBsoftware\GeneratedFiles\ui_DlgTypes.h
^imageProcessing.ui
C:\Projekti\GIT\Palcke\MBsoftware\GeneratedFiles\ui_imageProcessing.h
^LoginWindow.ui
C:\Projekti\GIT\Palcke\MBsoftware\GeneratedFiles\ui_LoginWindow.h
^MBserialCard.ui
C:\Projekti\GIT\Palcke\MBsoftware\GeneratedFiles\ui_MBserialCard.h
^MBsoftware.ui
C:\Projekti\GIT\Palcke\MBsoftware\GeneratedFiles\ui_MBsoftware.h
^SMCdrive.ui
C:\Projekti\GIT\Palcke\MBsoftware\GeneratedFiles\ui_SMCdrive.h
^statusBox.ui
C:\Projekti\GIT\Palcke\MBsoftware\GeneratedFiles\ui_statusBox.h
^types.ui
C:\Projekti\GIT\Palcke\MBsoftware\GeneratedFiles\ui_types.h
^MBsoftware.qrc
C:\Projekti\GIT\Palcke\MBsoftware\GeneratedFiles\qrc_MBsoftware.cpp
^MBsoftware.h
C:\Projekti\GIT\Palcke\MBsoftware\GeneratedFiles\Release\moc_MBsoftware.cpp
^Types.h
C:\Projekti\GIT\Palcke\MBsoftware\GeneratedFiles\Release\moc_Types.cpp
^imageProcessing.h
C:\Projekti\GIT\Palcke\MBsoftware\GeneratedFiles\Release\moc_imageProcessing.cpp
^Camera.h
C:\Projekti\GIT\Palcke\MBsoftware\GeneratedFiles\Release\moc_Camera.cpp
^ControlCardMB.h
C:\Projekti\GIT\Palcke\MBsoftware\GeneratedFiles\Release\moc_ControlCardMB.cpp
^DlgTypes.h
C:\Projekti\GIT\Palcke\MBsoftware\GeneratedFiles\Release\moc_DlgTypes.cpp
^Measurand.h
C:\Projekti\GIT\Palcke\MBsoftware\GeneratedFiles\Release\moc_Measurand.cpp
^Serial.h
C:\Projekti\GIT\Palcke\MBsoftware\GeneratedFiles\Release\moc_Serial.cpp
^SMCdrive.h
C:\Projekti\GIT\Palcke\MBsoftware\GeneratedFiles\Release\moc_SMCdrive.cpp
^PointGray.h
C:\Projekti\GIT\Palcke\MBsoftware\GeneratedFiles\Release\moc_PointGray.cpp
^statusBox.h
C:\Projekti\GIT\Palcke\MBsoftware\GeneratedFiles\Release\moc_statusBox.cpp
^LoginWindow.h
C:\Projekti\GIT\Palcke\MBsoftware\GeneratedFiles\Release\moc_LoginWindow.cpp
^Camera.ui
C:\Projekti\GIT\Palcke\MBsoftware\GeneratedFiles\ui_Camera.h
^DialogButtonBottom.ui
C:\Projekti\GIT\Palcke\MBsoftware\GeneratedFiles\ui_DialogButtonBottom.h
^DlgTypes.ui
C:\Projekti\GIT\Palcke\MBsoftware\GeneratedFiles\ui_DlgTypes.h
^imageProcessing.ui
C:\Projekti\GIT\Palcke\MBsoftware\GeneratedFiles\ui_imageProcessing.h
^LoginWindow.ui
C:\Projekti\GIT\Palcke\MBsoftware\GeneratedFiles\ui_LoginWindow.h
^MBserialCard.ui
C:\Projekti\GIT\Palcke\MBsoftware\GeneratedFiles\ui_MBserialCard.h
^MBsoftware.ui
C:\Projekti\GIT\Palcke\MBsoftware\GeneratedFiles\ui_MBsoftware.h
^SMCdrive.ui
C:\Projekti\GIT\Palcke\MBsoftware\GeneratedFiles\ui_SMCdrive.h
^statusBox.ui
C:\Projekti\GIT\Palcke\MBsoftware\GeneratedFiles\ui_statusBox.h
^types.ui
C:\Projekti\GIT\Palcke\MBsoftware\GeneratedFiles\ui_types.h
^MBsoftware.qrc
C:\Projekti\GIT\Palcke\MBsoftware\GeneratedFiles\qrc_MBsoftware.cpp
^MBsoftware.h
C:\Projekti\GIT\Palcke\MBsoftware\GeneratedFiles\Release\moc_MBsoftware.cpp
^Types.h
C:\Projekti\GIT\Palcke\MBsoftware\GeneratedFiles\Release\moc_Types.cpp
^imageProcessing.h
C:\Projekti\GIT\Palcke\MBsoftware\GeneratedFiles\Release\moc_imageProcessing.cpp
^Camera.h
C:\Projekti\GIT\Palcke\MBsoftware\GeneratedFiles\Release\moc_Camera.cpp
^ControlCardMB.h
C:\Projekti\GIT\Palcke\MBsoftware\GeneratedFiles\Release\moc_ControlCardMB.cpp
^DlgTypes.h
C:\Projekti\GIT\Palcke\MBsoftware\GeneratedFiles\Release\moc_DlgTypes.cpp
^Measurand.h
C:\Projekti\GIT\Palcke\MBsoftware\GeneratedFiles\Release\moc_Measurand.cpp
^Serial.h
C:\Projekti\GIT\Palcke\MBsoftware\GeneratedFiles\Release\moc_Serial.cpp
^SMCdrive.h
C:\Projekti\GIT\Palcke\MBsoftware\GeneratedFiles\Release\moc_SMCdrive.cpp
^PointGray.h
C:\Projekti\GIT\Palcke\MBsoftware\GeneratedFiles\Release\moc_PointGray.cpp
^statusBox.h
C:\Projekti\GIT\Palcke\MBsoftware\GeneratedFiles\Release\moc_statusBox.cpp
^LoginWindow.h
C:\Projekti\GIT\Palcke\MBsoftware\GeneratedFiles\Release\moc_LoginWindow.cpp
^Camera.ui
C:\Projekti\GIT\Palcke\MBsoftware\GeneratedFiles\ui_Camera.h
^DialogButtonBottom.ui
C:\Projekti\GIT\Palcke\MBsoftware\GeneratedFiles\ui_DialogButtonBottom.h
^DlgTypes.ui
C:\Projekti\GIT\Palcke\MBsoftware\GeneratedFiles\ui_DlgTypes.h
^imageProcessing.ui
C:\Projekti\GIT\Palcke\MBsoftware\GeneratedFiles\ui_imageProcessing.h
^LoginWindow.ui
C:\Projekti\GIT\Palcke\MBsoftware\GeneratedFiles\ui_LoginWindow.h
^MBserialCard.ui
C:\Projekti\GIT\Palcke\MBsoftware\GeneratedFiles\ui_MBserialCard.h
^MBsoftware.ui
C:\Projekti\GIT\Palcke\MBsoftware\GeneratedFiles\ui_MBsoftware.h
^SMCdrive.ui
C:\Projekti\GIT\Palcke\MBsoftware\GeneratedFiles\ui_SMCdrive.h
^statusBox.ui
C:\Projekti\GIT\Palcke\MBsoftware\GeneratedFiles\ui_statusBox.h
^types.ui
C:\Projekti\GIT\Palcke\MBsoftware\GeneratedFiles\ui_types.h
^MBsoftware.qrc
C:\Projekti\GIT\Palcke\MBsoftware\GeneratedFiles\qrc_MBsoftware.cpp
^MBsoftware.h
C:\Projekti\GIT\Palcke\MBsoftware\GeneratedFiles\Release\moc_MBsoftware.cpp
^Types.h
C:\Projekti\GIT\Palcke\MBsoftware\GeneratedFiles\Release\moc_Types.cpp
^imageProcessing.h
C:\Projekti\GIT\Palcke\MBsoftware\GeneratedFiles\Release\moc_imageProcessing.cpp
^Camera.h
C:\Projekti\GIT\Palcke\MBsoftware\GeneratedFiles\Release\moc_Camera.cpp
^ControlCardMB.h
C:\Projekti\GIT\Palcke\MBsoftware\GeneratedFiles\Release\moc_ControlCardMB.cpp
^DlgTypes.h
C:\Projekti\GIT\Palcke\MBsoftware\GeneratedFiles\Release\moc_DlgTypes.cpp
^Measurand.h
C:\Projekti\GIT\Palcke\MBsoftware\GeneratedFiles\Release\moc_Measurand.cpp
^Serial.h
C:\Projekti\GIT\Palcke\MBsoftware\GeneratedFiles\Release\moc_Serial.cpp
^SMCdrive.h
C:\Projekti\GIT\Palcke\MBsoftware\GeneratedFiles\Release\moc_SMCdrive.cpp
^PointGray.h
C:\Projekti\GIT\Palcke\MBsoftware\GeneratedFiles\Release\moc_PointGray.cpp
^statusBox.h
C:\Projekti\GIT\Palcke\MBsoftware\GeneratedFiles\Release\moc_statusBox.cpp
^LoginWindow.h
C:\Projekti\GIT\Palcke\MBsoftware\GeneratedFiles\Release\moc_LoginWindow.cpp
^Camera.ui
C:\Projekti\GIT\Palcke\MBsoftware\GeneratedFiles\ui_Camera.h
^DialogButtonBottom.ui
C:\Projekti\GIT\Palcke\MBsoftware\GeneratedFiles\ui_DialogButtonBottom.h
^DlgTypes.ui
C:\Projekti\GIT\Palcke\MBsoftware\GeneratedFiles\ui_DlgTypes.h
^imageProcessing.ui
C:\Projekti\GIT\Palcke\MBsoftware\GeneratedFiles\ui_imageProcessing.h
^LoginWindow.ui
C:\Projekti\GIT\Palcke\MBsoftware\GeneratedFiles\ui_LoginWindow.h
^MBserialCard.ui
C:\Projekti\GIT\Palcke\MBsoftware\GeneratedFiles\ui_MBserialCard.h
^MBsoftware.ui
C:\Projekti\GIT\Palcke\MBsoftware\GeneratedFiles\ui_MBsoftware.h
^SMCdrive.ui
C:\Projekti\GIT\Palcke\MBsoftware\GeneratedFiles\ui_SMCdrive.h
^statusBox.ui
C:\Projekti\GIT\Palcke\MBsoftware\GeneratedFiles\ui_statusBox.h
^types.ui
C:\Projekti\GIT\Palcke\MBsoftware\GeneratedFiles\ui_types.h
^MBsoftware.qrc
C:\Projekti\GIT\Palcke\MBsoftware\GeneratedFiles\qrc_MBsoftware.cpp
^MBsoftware.h
C:\Projekti\GIT\Palcke\MBsoftware\GeneratedFiles\Release\moc_MBsoftware.cpp
^Types.h
C:\Projekti\GIT\Palcke\MBsoftware\GeneratedFiles\Release\moc_Types.cpp
^imageProcessing.h
C:\Projekti\GIT\Palcke\MBsoftware\GeneratedFiles\Release\moc_imageProcessing.cpp
^Camera.h
C:\Projekti\GIT\Palcke\MBsoftware\GeneratedFiles\Release\moc_Camera.cpp
^ControlCardMB.h
C:\Projekti\GIT\Palcke\MBsoftware\GeneratedFiles\Release\moc_ControlCardMB.cpp
^DlgTypes.h
C:\Projekti\GIT\Palcke\MBsoftware\GeneratedFiles\Release\moc_DlgTypes.cpp
^Measurand.h
C:\Projekti\GIT\Palcke\MBsoftware\GeneratedFiles\Release\moc_Measurand.cpp
^Serial.h
C:\Projekti\GIT\Palcke\MBsoftware\GeneratedFiles\Release\moc_Serial.cpp
^SMCdrive.h
C:\Projekti\GIT\Palcke\MBsoftware\GeneratedFiles\Release\moc_SMCdrive.cpp
^PointGray.h
C:\Projekti\GIT\Palcke\MBsoftware\GeneratedFiles\Release\moc_PointGray.cpp
^statusBox.h
C:\Projekti\GIT\Palcke\MBsoftware\GeneratedFiles\Release\moc_statusBox.cpp
^LoginWindow.h
C:\Projekti\GIT\Palcke\MBsoftware\GeneratedFiles\Release\moc_LoginWindow.cpp
^Camera.ui
C:\Projekti\GIT\Palcke\MBsoftware\GeneratedFiles\ui_Camera.h
^DialogButtonBottom.ui
C:\Projekti\GIT\Palcke\MBsoftware\GeneratedFiles\ui_DialogButtonBottom.h
^DlgTypes.ui
C:\Projekti\GIT\Palcke\MBsoftware\GeneratedFiles\ui_DlgTypes.h
^imageProcessing.ui
C:\Projekti\GIT\Palcke\MBsoftware\GeneratedFiles\ui_imageProcessing.h
^LoginWindow.ui
C:\Projekti\GIT\Palcke\MBsoftware\GeneratedFiles\ui_LoginWindow.h
^MBserialCard.ui
C:\Projekti\GIT\Palcke\MBsoftware\GeneratedFiles\ui_MBserialCard.h
^MBsoftware.ui
C:\Projekti\GIT\Palcke\MBsoftware\GeneratedFiles\ui_MBsoftware.h
^SMCdrive.ui
C:\Projekti\GIT\Palcke\MBsoftware\GeneratedFiles\ui_SMCdrive.h
^statusBox.ui
C:\Projekti\GIT\Palcke\MBsoftware\GeneratedFiles\ui_statusBox.h
^types.ui
C:\Projekti\GIT\Palcke\MBsoftware\GeneratedFiles\ui_types.h
^MBsoftware.qrc
C:\Projekti\GIT\Palcke\MBsoftware\GeneratedFiles\qrc_MBsoftware.cpp
^Types.h
C:\Projekti\GIT\Palcke\MBsoftware\GeneratedFiles\Release\moc_Types.cpp
^Camera.h
C:\Projekti\GIT\Palcke\MBsoftware\GeneratedFiles\Release\moc_Camera.cpp
^ControlCardMB.h
C:\Projekti\GIT\Palcke\MBsoftware\GeneratedFiles\Release\moc_ControlCardMB.cpp
^DlgTypes.h
C:\Projekti\GIT\Palcke\MBsoftware\GeneratedFiles\Release\moc_DlgTypes.cpp
^Measurand.h
C:\Projekti\GIT\Palcke\MBsoftware\GeneratedFiles\Release\moc_Measurand.cpp
^Serial.h
C:\Projekti\GIT\Palcke\MBsoftware\GeneratedFiles\Release\moc_Serial.cpp
^SMCdrive.h
C:\Projekti\GIT\Palcke\MBsoftware\GeneratedFiles\Release\moc_SMCdrive.cpp
^PointGray.h
C:\Projekti\GIT\Palcke\MBsoftware\GeneratedFiles\Release\moc_PointGray.cpp
^statusBox.h
C:\Projekti\GIT\Palcke\MBsoftware\GeneratedFiles\Release\moc_statusBox.cpp
^LoginWindow.h
C:\Projekti\GIT\Palcke\MBsoftware\GeneratedFiles\Release\moc_LoginWindow.cpp
^MBsoftware.h
C:\Projekti\GIT\Palcke\MBsoftware\GeneratedFiles\Release\moc_MBsoftware.cpp
^imageProcessing.h
C:\Projekti\GIT\Palcke\MBsoftware\GeneratedFiles\Release\moc_imageProcessing.cpp
^Camera.ui
C:\Projekti\GIT\Palcke\MBsoftware\GeneratedFiles\ui_Camera.h
^DialogButtonBottom.ui
C:\Projekti\GIT\Palcke\MBsoftware\GeneratedFiles\ui_DialogButtonBottom.h
^DlgTypes.ui
C:\Projekti\GIT\Palcke\MBsoftware\GeneratedFiles\ui_DlgTypes.h
^imageProcessing.ui
C:\Projekti\GIT\Palcke\MBsoftware\GeneratedFiles\ui_imageProcessing.h
^LoginWindow.ui
C:\Projekti\GIT\Palcke\MBsoftware\GeneratedFiles\ui_LoginWindow.h
^MBserialCard.ui
C:\Projekti\GIT\Palcke\MBsoftware\GeneratedFiles\ui_MBserialCard.h
^MBsoftware.ui
C:\Projekti\GIT\Palcke\MBsoftware\GeneratedFiles\ui_MBsoftware.h
^SMCdrive.ui
C:\Projekti\GIT\Palcke\MBsoftware\GeneratedFiles\ui_SMCdrive.h
^statusBox.ui
C:\Projekti\GIT\Palcke\MBsoftware\GeneratedFiles\ui_statusBox.h
^types.ui
C:\Projekti\GIT\Palcke\MBsoftware\GeneratedFiles\ui_types.h
^MBsoftware.qrc
C:\Projekti\GIT\Palcke\MBsoftware\GeneratedFiles\qrc_MBsoftware.cpp
^MBsoftware.h
C:\Projekti\GIT\Palcke\MBsoftware\GeneratedFiles\Release\moc_MBsoftware.cpp
^Types.h
C:\Projekti\GIT\Palcke\MBsoftware\GeneratedFiles\Release\moc_Types.cpp
^imageProcessing.h
C:\Projekti\GIT\Palcke\MBsoftware\GeneratedFiles\Release\moc_imageProcessing.cpp
^Camera.h
C:\Projekti\GIT\Palcke\MBsoftware\GeneratedFiles\Release\moc_Camera.cpp
^ControlCardMB.h
C:\Projekti\GIT\Palcke\MBsoftware\GeneratedFiles\Release\moc_ControlCardMB.cpp
^DlgTypes.h
C:\Projekti\GIT\Palcke\MBsoftware\GeneratedFiles\Release\moc_DlgTypes.cpp
^Measurand.h
C:\Projekti\GIT\Palcke\MBsoftware\GeneratedFiles\Release\moc_Measurand.cpp
^Serial.h
C:\Projekti\GIT\Palcke\MBsoftware\GeneratedFiles\Release\moc_Serial.cpp
^SMCdrive.h
C:\Projekti\GIT\Palcke\MBsoftware\GeneratedFiles\Release\moc_SMCdrive.cpp
^PointGray.h
C:\Projekti\GIT\Palcke\MBsoftware\GeneratedFiles\Release\moc_PointGray.cpp
^statusBox.h
C:\Projekti\GIT\Palcke\MBsoftware\GeneratedFiles\Release\moc_statusBox.cpp
^LoginWindow.h
C:\Projekti\GIT\Palcke\MBsoftware\GeneratedFiles\Release\moc_LoginWindow.cpp
^Camera.ui
C:\Projekti\GIT\Palcke\MBsoftware\GeneratedFiles\ui_Camera.h
^DialogButtonBottom.ui
C:\Projekti\GIT\Palcke\MBsoftware\GeneratedFiles\ui_DialogButtonBottom.h
^DlgTypes.ui
C:\Projekti\GIT\Palcke\MBsoftware\GeneratedFiles\ui_DlgTypes.h
^imageProcessing.ui
C:\Projekti\GIT\Palcke\MBsoftware\GeneratedFiles\ui_imageProcessing.h
^LoginWindow.ui
C:\Projekti\GIT\Palcke\MBsoftware\GeneratedFiles\ui_LoginWindow.h
^MBserialCard.ui
C:\Projekti\GIT\Palcke\MBsoftware\GeneratedFiles\ui_MBserialCard.h
^MBsoftware.ui
C:\Projekti\GIT\Palcke\MBsoftware\GeneratedFiles\ui_MBsoftware.h
^SMCdrive.ui
C:\Projekti\GIT\Palcke\MBsoftware\GeneratedFiles\ui_SMCdrive.h
^statusBox.ui
C:\Projekti\GIT\Palcke\MBsoftware\GeneratedFiles\ui_statusBox.h
^types.ui
C:\Projekti\GIT\Palcke\MBsoftware\GeneratedFiles\ui_types.h
^MBsoftware.qrc
C:\Projekti\GIT\Palcke\MBsoftware\GeneratedFiles\qrc_MBsoftware.cpp
^MBsoftware.h
C:\Projekti\GIT\Palcke\MBsoftware\GeneratedFiles\Release\moc_MBsoftware.cpp
^Types.h
C:\Projekti\GIT\Palcke\MBsoftware\GeneratedFiles\Release\moc_Types.cpp
^imageProcessing.h
C:\Projekti\GIT\Palcke\MBsoftware\GeneratedFiles\Release\moc_imageProcessing.cpp
^Camera.h
C:\Projekti\GIT\Palcke\MBsoftware\GeneratedFiles\Release\moc_Camera.cpp
^ControlCardMB.h
C:\Projekti\GIT\Palcke\MBsoftware\GeneratedFiles\Release\moc_ControlCardMB.cpp
^DlgTypes.h
C:\Projekti\GIT\Palcke\MBsoftware\GeneratedFiles\Release\moc_DlgTypes.cpp
^Measurand.h
C:\Projekti\GIT\Palcke\MBsoftware\GeneratedFiles\Release\moc_Measurand.cpp
^Serial.h
C:\Projekti\GIT\Palcke\MBsoftware\GeneratedFiles\Release\moc_Serial.cpp
^SMCdrive.h
C:\Projekti\GIT\Palcke\MBsoftware\GeneratedFiles\Release\moc_SMCdrive.cpp
^PointGray.h
C:\Projekti\GIT\Palcke\MBsoftware\GeneratedFiles\Release\moc_PointGray.cpp
^statusBox.h
C:\Projekti\GIT\Palcke\MBsoftware\GeneratedFiles\Release\moc_statusBox.cpp
^LoginWindow.h
C:\Projekti\GIT\Palcke\MBsoftware\GeneratedFiles\Release\moc_LoginWindow.cpp
^Camera.ui
C:\Projekti\GIT\Palcke\MBsoftware\GeneratedFiles\ui_Camera.h
^DialogButtonBottom.ui
C:\Projekti\GIT\Palcke\MBsoftware\GeneratedFiles\ui_DialogButtonBottom.h
^DlgTypes.ui
C:\Projekti\GIT\Palcke\MBsoftware\GeneratedFiles\ui_DlgTypes.h
^imageProcessing.ui
C:\Projekti\GIT\Palcke\MBsoftware\GeneratedFiles\ui_imageProcessing.h
^LoginWindow.ui
C:\Projekti\GIT\Palcke\MBsoftware\GeneratedFiles\ui_LoginWindow.h
^MBserialCard.ui
C:\Projekti\GIT\Palcke\MBsoftware\GeneratedFiles\ui_MBserialCard.h
^MBsoftware.ui
C:\Projekti\GIT\Palcke\MBsoftware\GeneratedFiles\ui_MBsoftware.h
^SMCdrive.ui
C:\Projekti\GIT\Palcke\MBsoftware\GeneratedFiles\ui_SMCdrive.h
^statusBox.ui
C:\Projekti\GIT\Palcke\MBsoftware\GeneratedFiles\ui_statusBox.h
^types.ui
C:\Projekti\GIT\Palcke\MBsoftware\GeneratedFiles\ui_types.h
^MBsoftware.qrc
C:\Projekti\GIT\Palcke\MBsoftware\GeneratedFiles\qrc_MBsoftware.cpp
^Types.h
C:\Projekti\GIT\Palcke\MBsoftware\GeneratedFiles\Release\moc_Types.cpp
^ControlCardMB.h
C:\Projekti\GIT\Palcke\MBsoftware\GeneratedFiles\Release\moc_ControlCardMB.cpp
^DlgTypes.h
C:\Projekti\GIT\Palcke\MBsoftware\GeneratedFiles\Release\moc_DlgTypes.cpp
^Measurand.h
C:\Projekti\GIT\Palcke\MBsoftware\GeneratedFiles\Release\moc_Measurand.cpp
^Serial.h
C:\Projekti\GIT\Palcke\MBsoftware\GeneratedFiles\Release\moc_Serial.cpp
^SMCdrive.h
C:\Projekti\GIT\Palcke\MBsoftware\GeneratedFiles\Release\moc_SMCdrive.cpp
^PointGray.h
C:\Projekti\GIT\Palcke\MBsoftware\GeneratedFiles\Release\moc_PointGray.cpp
^statusBox.h
C:\Projekti\GIT\Palcke\MBsoftware\GeneratedFiles\Release\moc_statusBox.cpp
^LoginWindow.h
C:\Projekti\GIT\Palcke\MBsoftware\GeneratedFiles\Release\moc_LoginWindow.cpp
^MBsoftware.h
C:\Projekti\GIT\Palcke\MBsoftware\GeneratedFiles\Release\moc_MBsoftware.cpp
^imageProcessing.h
C:\Projekti\GIT\Palcke\MBsoftware\GeneratedFiles\Release\moc_imageProcessing.cpp
^Camera.h
C:\Projekti\GIT\Palcke\MBsoftware\GeneratedFiles\Release\moc_Camera.cpp
^Camera.ui
C:\Projekti\GIT\Palcke\MBsoftware\GeneratedFiles\ui_Camera.h
^DialogButtonBottom.ui
C:\Projekti\GIT\Palcke\MBsoftware\GeneratedFiles\ui_DialogButtonBottom.h
^DlgTypes.ui
C:\Projekti\GIT\Palcke\MBsoftware\GeneratedFiles\ui_DlgTypes.h
^imageProcessing.ui
C:\Projekti\GIT\Palcke\MBsoftware\GeneratedFiles\ui_imageProcessing.h
^LoginWindow.ui
C:\Projekti\GIT\Palcke\MBsoftware\GeneratedFiles\ui_LoginWindow.h
^MBserialCard.ui
C:\Projekti\GIT\Palcke\MBsoftware\GeneratedFiles\ui_MBserialCard.h
^MBsoftware.ui
C:\Projekti\GIT\Palcke\MBsoftware\GeneratedFiles\ui_MBsoftware.h
^SMCdrive.ui
C:\Projekti\GIT\Palcke\MBsoftware\GeneratedFiles\ui_SMCdrive.h
^statusBox.ui
C:\Projekti\GIT\Palcke\MBsoftware\GeneratedFiles\ui_statusBox.h
^types.ui
C:\Projekti\GIT\Palcke\MBsoftware\GeneratedFiles\ui_types.h
^MBsoftware.qrc
C:\Projekti\GIT\Palcke\MBsoftware\GeneratedFiles\qrc_MBsoftware.cpp
^Types.h
C:\Projekti\GIT\Palcke\MBsoftware\GeneratedFiles\Release\moc_Types.cpp
^imageProcessing.h
C:\Projekti\GIT\Palcke\MBsoftware\GeneratedFiles\Release\moc_imageProcessing.cpp
^ControlCardMB.h
C:\Projekti\GIT\Palcke\MBsoftware\GeneratedFiles\Release\moc_ControlCardMB.cpp
^DlgTypes.h
C:\Projekti\GIT\Palcke\MBsoftware\GeneratedFiles\Release\moc_DlgTypes.cpp
^Measurand.h
C:\Projekti\GIT\Palcke\MBsoftware\GeneratedFiles\Release\moc_Measurand.cpp
^Serial.h
C:\Projekti\GIT\Palcke\MBsoftware\GeneratedFiles\Release\moc_Serial.cpp
^SMCdrive.h
C:\Projekti\GIT\Palcke\MBsoftware\GeneratedFiles\Release\moc_SMCdrive.cpp
^PointGray.h
C:\Projekti\GIT\Palcke\MBsoftware\GeneratedFiles\Release\moc_PointGray.cpp
^statusBox.h
C:\Projekti\GIT\Palcke\MBsoftware\GeneratedFiles\Release\moc_statusBox.cpp
^LoginWindow.h
C:\Projekti\GIT\Palcke\MBsoftware\GeneratedFiles\Release\moc_LoginWindow.cpp
^MBsoftware.h
C:\Projekti\GIT\Palcke\MBsoftware\GeneratedFiles\Release\moc_MBsoftware.cpp
^Camera.h
C:\Projekti\GIT\Palcke\MBsoftware\GeneratedFiles\Release\moc_Camera.cpp
^Camera.ui
C:\Projekti\GIT\Palcke\MBsoftware\GeneratedFiles\ui_Camera.h
^DialogButtonBottom.ui
C:\Projekti\GIT\Palcke\MBsoftware\GeneratedFiles\ui_DialogButtonBottom.h
^DlgTypes.ui
C:\Projekti\GIT\Palcke\MBsoftware\GeneratedFiles\ui_DlgTypes.h
^imageProcessing.ui
C:\Projekti\GIT\Palcke\MBsoftware\GeneratedFiles\ui_imageProcessing.h
^LoginWindow.ui
C:\Projekti\GIT\Palcke\MBsoftware\GeneratedFiles\ui_LoginWindow.h
^MBserialCard.ui
C:\Projekti\GIT\Palcke\MBsoftware\GeneratedFiles\ui_MBserialCard.h
^MBsoftware.ui
C:\Projekti\GIT\Palcke\MBsoftware\GeneratedFiles\ui_MBsoftware.h
^SMCdrive.ui
C:\Projekti\GIT\Palcke\MBsoftware\GeneratedFiles\ui_SMCdrive.h
^statusBox.ui
C:\Projekti\GIT\Palcke\MBsoftware\GeneratedFiles\ui_statusBox.h
^types.ui
C:\Projekti\GIT\Palcke\MBsoftware\GeneratedFiles\ui_types.h
^MBsoftware.qrc
C:\Projekti\GIT\Palcke\MBsoftware\GeneratedFiles\qrc_MBsoftware.cpp
^MBsoftware.h
C:\Projekti\GIT\Palcke\MBsoftware\GeneratedFiles\Release\moc_MBsoftware.cpp
^Types.h
C:\Projekti\GIT\Palcke\MBsoftware\GeneratedFiles\Release\moc_Types.cpp
^imageProcessing.h
C:\Projekti\GIT\Palcke\MBsoftware\GeneratedFiles\Release\moc_imageProcessing.cpp
^Camera.h
C:\Projekti\GIT\Palcke\MBsoftware\GeneratedFiles\Release\moc_Camera.cpp
^ControlCardMB.h
C:\Projekti\GIT\Palcke\MBsoftware\GeneratedFiles\Release\moc_ControlCardMB.cpp
^DlgTypes.h
C:\Projekti\GIT\Palcke\MBsoftware\GeneratedFiles\Release\moc_DlgTypes.cpp
^Measurand.h
C:\Projekti\GIT\Palcke\MBsoftware\GeneratedFiles\Release\moc_Measurand.cpp
^Serial.h
C:\Projekti\GIT\Palcke\MBsoftware\GeneratedFiles\Release\moc_Serial.cpp
^SMCdrive.h
C:\Projekti\GIT\Palcke\MBsoftware\GeneratedFiles\Release\moc_SMCdrive.cpp
^PointGray.h
C:\Projekti\GIT\Palcke\MBsoftware\GeneratedFiles\Release\moc_PointGray.cpp
^statusBox.h
C:\Projekti\GIT\Palcke\MBsoftware\GeneratedFiles\Release\moc_statusBox.cpp
^LoginWindow.h
C:\Projekti\GIT\Palcke\MBsoftware\GeneratedFiles\Release\moc_LoginWindow.cpp
^Camera.ui
C:\Projekti\GIT\Palcke\MBsoftware\GeneratedFiles\ui_Camera.h
^DialogButtonBottom.ui
C:\Projekti\GIT\Palcke\MBsoftware\GeneratedFiles\ui_DialogButtonBottom.h
^DlgTypes.ui
C:\Projekti\GIT\Palcke\MBsoftware\GeneratedFiles\ui_DlgTypes.h
^imageProcessing.ui
C:\Projekti\GIT\Palcke\MBsoftware\GeneratedFiles\ui_imageProcessing.h
^LoginWindow.ui
C:\Projekti\GIT\Palcke\MBsoftware\GeneratedFiles\ui_LoginWindow.h
^MBserialCard.ui
C:\Projekti\GIT\Palcke\MBsoftware\GeneratedFiles\ui_MBserialCard.h
^MBsoftware.ui
C:\Projekti\GIT\Palcke\MBsoftware\GeneratedFiles\ui_MBsoftware.h
^SMCdrive.ui
C:\Projekti\GIT\Palcke\MBsoftware\GeneratedFiles\ui_SMCdrive.h
^statusBox.ui
C:\Projekti\GIT\Palcke\MBsoftware\GeneratedFiles\ui_statusBox.h
^types.ui
C:\Projekti\GIT\Palcke\MBsoftware\GeneratedFiles\ui_types.h
^MBsoftware.qrc
C:\Projekti\GIT\Palcke\MBsoftware\GeneratedFiles\qrc_MBsoftware.cpp
^MBsoftware.h
C:\Projekti\GIT\Palcke\MBsoftware\GeneratedFiles\Release\moc_MBsoftware.cpp
^Types.h
C:\Projekti\GIT\Palcke\MBsoftware\GeneratedFiles\Release\moc_Types.cpp
^imageProcessing.h
C:\Projekti\GIT\Palcke\MBsoftware\GeneratedFiles\Release\moc_imageProcessing.cpp
^Camera.h
C:\Projekti\GIT\Palcke\MBsoftware\GeneratedFiles\Release\moc_Camera.cpp
^ControlCardMB.h
C:\Projekti\GIT\Palcke\MBsoftware\GeneratedFiles\Release\moc_ControlCardMB.cpp
^DlgTypes.h
C:\Projekti\GIT\Palcke\MBsoftware\GeneratedFiles\Release\moc_DlgTypes.cpp
^Measurand.h
C:\Projekti\GIT\Palcke\MBsoftware\GeneratedFiles\Release\moc_Measurand.cpp
^Serial.h
C:\Projekti\GIT\Palcke\MBsoftware\GeneratedFiles\Release\moc_Serial.cpp
^SMCdrive.h
C:\Projekti\GIT\Palcke\MBsoftware\GeneratedFiles\Release\moc_SMCdrive.cpp
^PointGray.h
C:\Projekti\GIT\Palcke\MBsoftware\GeneratedFiles\Release\moc_PointGray.cpp
^statusBox.h
C:\Projekti\GIT\Palcke\MBsoftware\GeneratedFiles\Release\moc_statusBox.cpp
^LoginWindow.h
C:\Projekti\GIT\Palcke\MBsoftware\GeneratedFiles\Release\moc_LoginWindow.cpp
^Camera.ui
C:\Projekti\GIT\Palcke\MBsoftware\GeneratedFiles\ui_Camera.h
^DialogButtonBottom.ui
C:\Projekti\GIT\Palcke\MBsoftware\GeneratedFiles\ui_DialogButtonBottom.h
^DlgTypes.ui
C:\Projekti\GIT\Palcke\MBsoftware\GeneratedFiles\ui_DlgTypes.h
^imageProcessing.ui
C:\Projekti\GIT\Palcke\MBsoftware\GeneratedFiles\ui_imageProcessing.h
^LoginWindow.ui
C:\Projekti\GIT\Palcke\MBsoftware\GeneratedFiles\ui_LoginWindow.h
^MBserialCard.ui
C:\Projekti\GIT\Palcke\MBsoftware\GeneratedFiles\ui_MBserialCard.h
^MBsoftware.ui
C:\Projekti\GIT\Palcke\MBsoftware\GeneratedFiles\ui_MBsoftware.h
^SMCdrive.ui
C:\Projekti\GIT\Palcke\MBsoftware\GeneratedFiles\ui_SMCdrive.h
^statusBox.ui
C:\Projekti\GIT\Palcke\MBsoftware\GeneratedFiles\ui_statusBox.h
^types.ui
C:\Projekti\GIT\Palcke\MBsoftware\GeneratedFiles\ui_types.h
^MBsoftware.qrc
C:\Projekti\GIT\Palcke\MBsoftware\GeneratedFiles\qrc_MBsoftware.cpp
^MBsoftware.h
C:\Projekti\GIT\Palcke\MBsoftware\GeneratedFiles\Release\moc_MBsoftware.cpp
^Types.h
C:\Projekti\GIT\Palcke\MBsoftware\GeneratedFiles\Release\moc_Types.cpp
^imageProcessing.h
C:\Projekti\GIT\Palcke\MBsoftware\GeneratedFiles\Release\moc_imageProcessing.cpp
^ControlCardMB.h
C:\Projekti\GIT\Palcke\MBsoftware\GeneratedFiles\Release\moc_ControlCardMB.cpp
^DlgTypes.h
C:\Projekti\GIT\Palcke\MBsoftware\GeneratedFiles\Release\moc_DlgTypes.cpp
^Measurand.h
C:\Projekti\GIT\Palcke\MBsoftware\GeneratedFiles\Release\moc_Measurand.cpp
^Serial.h
C:\Projekti\GIT\Palcke\MBsoftware\GeneratedFiles\Release\moc_Serial.cpp
^SMCdrive.h
C:\Projekti\GIT\Palcke\MBsoftware\GeneratedFiles\Release\moc_SMCdrive.cpp
^PointGray.h
C:\Projekti\GIT\Palcke\MBsoftware\GeneratedFiles\Release\moc_PointGray.cpp
^statusBox.h
C:\Projekti\GIT\Palcke\MBsoftware\GeneratedFiles\Release\moc_statusBox.cpp
^LoginWindow.h
C:\Projekti\GIT\Palcke\MBsoftware\GeneratedFiles\Release\moc_LoginWindow.cpp
^Camera.h
C:\Projekti\GIT\Palcke\MBsoftware\GeneratedFiles\Release\moc_Camera.cpp
^Camera.ui
C:\Projekti\GIT\Palcke\MBsoftware\GeneratedFiles\ui_Camera.h
^DialogButtonBottom.ui
C:\Projekti\GIT\Palcke\MBsoftware\GeneratedFiles\ui_DialogButtonBottom.h
^DlgTypes.ui
C:\Projekti\GIT\Palcke\MBsoftware\GeneratedFiles\ui_DlgTypes.h
^imageProcessing.ui
C:\Projekti\GIT\Palcke\MBsoftware\GeneratedFiles\ui_imageProcessing.h
^LoginWindow.ui
C:\Projekti\GIT\Palcke\MBsoftware\GeneratedFiles\ui_LoginWindow.h
^MBserialCard.ui
C:\Projekti\GIT\Palcke\MBsoftware\GeneratedFiles\ui_MBserialCard.h
^MBsoftware.ui
C:\Projekti\GIT\Palcke\MBsoftware\GeneratedFiles\ui_MBsoftware.h
^SMCdrive.ui
C:\Projekti\GIT\Palcke\MBsoftware\GeneratedFiles\ui_SMCdrive.h
^statusBox.ui
C:\Projekti\GIT\Palcke\MBsoftware\GeneratedFiles\ui_statusBox.h
^types.ui
C:\Projekti\GIT\Palcke\MBsoftware\GeneratedFiles\ui_types.h
^MBsoftware.qrc
C:\Projekti\GIT\Palcke\MBsoftware\GeneratedFiles\qrc_MBsoftware.cpp
^MBsoftware.h
C:\Projekti\GIT\Palcke\MBsoftware\GeneratedFiles\Release\moc_MBsoftware.cpp
^Types.h
C:\Projekti\GIT\Palcke\MBsoftware\GeneratedFiles\Release\moc_Types.cpp
^imageProcessing.h
C:\Projekti\GIT\Palcke\MBsoftware\GeneratedFiles\Release\moc_imageProcessing.cpp
^ControlCardMB.h
C:\Projekti\GIT\Palcke\MBsoftware\GeneratedFiles\Release\moc_ControlCardMB.cpp
^DlgTypes.h
C:\Projekti\GIT\Palcke\MBsoftware\GeneratedFiles\Release\moc_DlgTypes.cpp
^Measurand.h
C:\Projekti\GIT\Palcke\MBsoftware\GeneratedFiles\Release\moc_Measurand.cpp
^Serial.h
C:\Projekti\GIT\Palcke\MBsoftware\GeneratedFiles\Release\moc_Serial.cpp
^SMCdrive.h
C:\Projekti\GIT\Palcke\MBsoftware\GeneratedFiles\Release\moc_SMCdrive.cpp
^PointGray.h
C:\Projekti\GIT\Palcke\MBsoftware\GeneratedFiles\Release\moc_PointGray.cpp
^statusBox.h
C:\Projekti\GIT\Palcke\MBsoftware\GeneratedFiles\Release\moc_statusBox.cpp
^LoginWindow.h
C:\Projekti\GIT\Palcke\MBsoftware\GeneratedFiles\Release\moc_LoginWindow.cpp
^Camera.h
C:\Projekti\GIT\Palcke\MBsoftware\GeneratedFiles\Release\moc_Camera.cpp
^Camera.ui
C:\Projekti\GIT\Palcke\MBsoftware\GeneratedFiles\ui_Camera.h
^DialogButtonBottom.ui
C:\Projekti\GIT\Palcke\MBsoftware\GeneratedFiles\ui_DialogButtonBottom.h
^DlgTypes.ui
C:\Projekti\GIT\Palcke\MBsoftware\GeneratedFiles\ui_DlgTypes.h
^imageProcessing.ui
C:\Projekti\GIT\Palcke\MBsoftware\GeneratedFiles\ui_imageProcessing.h
^LoginWindow.ui
C:\Projekti\GIT\Palcke\MBsoftware\GeneratedFiles\ui_LoginWindow.h
^MBserialCard.ui
C:\Projekti\GIT\Palcke\MBsoftware\GeneratedFiles\ui_MBserialCard.h
^MBsoftware.ui
C:\Projekti\GIT\Palcke\MBsoftware\GeneratedFiles\ui_MBsoftware.h
^SMCdrive.ui
C:\Projekti\GIT\Palcke\MBsoftware\GeneratedFiles\ui_SMCdrive.h
^statusBox.ui
C:\Projekti\GIT\Palcke\MBsoftware\GeneratedFiles\ui_statusBox.h
^types.ui
C:\Projekti\GIT\Palcke\MBsoftware\GeneratedFiles\ui_types.h
^MBsoftware.qrc
C:\Projekti\GIT\Palcke\MBsoftware\GeneratedFiles\qrc_MBsoftware.cpp
^MBsoftware.h
C:\Projekti\GIT\Palcke\MBsoftware\GeneratedFiles\Release\moc_MBsoftware.cpp
^Types.h
C:\Projekti\GIT\Palcke\MBsoftware\GeneratedFiles\Release\moc_Types.cpp
^imageProcessing.h
C:\Projekti\GIT\Palcke\MBsoftware\GeneratedFiles\Release\moc_imageProcessing.cpp
^Camera.h
C:\Projekti\GIT\Palcke\MBsoftware\GeneratedFiles\Release\moc_Camera.cpp
^ControlCardMB.h
C:\Projekti\GIT\Palcke\MBsoftware\GeneratedFiles\Release\moc_ControlCardMB.cpp
^DlgTypes.h
C:\Projekti\GIT\Palcke\MBsoftware\GeneratedFiles\Release\moc_DlgTypes.cpp
^Measurand.h
C:\Projekti\GIT\Palcke\MBsoftware\GeneratedFiles\Release\moc_Measurand.cpp
^Serial.h
C:\Projekti\GIT\Palcke\MBsoftware\GeneratedFiles\Release\moc_Serial.cpp
^SMCdrive.h
C:\Projekti\GIT\Palcke\MBsoftware\GeneratedFiles\Release\moc_SMCdrive.cpp
^PointGray.h
C:\Projekti\GIT\Palcke\MBsoftware\GeneratedFiles\Release\moc_PointGray.cpp
^statusBox.h
C:\Projekti\GIT\Palcke\MBsoftware\GeneratedFiles\Release\moc_statusBox.cpp
^LoginWindow.h
C:\Projekti\GIT\Palcke\MBsoftware\GeneratedFiles\Release\moc_LoginWindow.cpp
