^C:\PROJEKTI\GIT\PALCKE\MBSOFTWARE\MBSOFTWARE.H
^C:\PROJEKTI\GIT\PALCKE\MBSOFTWARE\TYPES.H
^C:\PROJEKTI\GIT\PALCKE\MBSOFTWARE\IMAGEPROCESSING.H
^C:\PROJEKTI\GIT\PALCKE\MBSOFTWARE\CAMERA.H
^C:\PROJEKTI\GIT\PALCKE\MBSOFTWARE\CONTROLCARDMB.H
^C:\PROJEKTI\GIT\PALCKE\MBSOFTWARE\DLGTYPES.H
^C:\PROJEKTI\GIT\PALCKE\MBSOFTWARE\MEASURAND.H
^C:\PROJEKTI\GIT\PALCKE\MBSOFTWARE\SERIAL.H
^C:\PROJEKTI\GIT\PALCKE\MBSOFTWARE\SMCDRIVE.H
^C:\PROJEKTI\GIT\PALCKE\MBSOFTWARE\POINTGRAY.H
^C:\PROJEKTI\GIT\PALCKE\MBSOFTWARE\STATUSBOX.H
^C:\PROJEKTI\GIT\PALCKE\MBSOFTWARE\LOGINWINDOW.H
