^C:\PROJEKTI\LAMELE\MBSOFTWARE\MBSOFTWARE.RC
C:\PROJEKTI\LAMELE\MBSOFTWARE\X64\RELEASE\MBSOFTWARE.RES
^C:\PROJEKTI\LAMELEFINAL\MBSOFTWARE\MBSOFTWARE.RC
C:\PROJEKTI\LAMELEFINAL\MBSOFTWARE\X64\RELEASE\MBSOFTWARE.RES
